\relax 
\AC@reset@newl@bel
\citation{Gizzi2011a}
\citation{Clark2010d}
\citation{Cappellini2006}
\citation{Gizzi2012e}
\citation{Sartori2013a}
\citation{Gonzalez-Vargas2015}
\citation{Hermens2000}
\citation{Gizzi2015}
\@writefile{toc}{\contentsline {section}{\numberline {1}Introduction}{3}\protected@file@percent }
\@writefile{toc}{\contentsline {section}{\numberline {2}Materials and methods}{3}\protected@file@percent }
\@writefile{toc}{\contentsline {subsection}{\numberline {2.1}Subjects}{3}\protected@file@percent }
\@writefile{toc}{\contentsline {subsection}{\numberline {2.2}Data recording}{3}\protected@file@percent }
\@writefile{toc}{\contentsline {subsubsection}{\numberline {2.2.1}EMG}{3}\protected@file@percent }
\@writefile{toc}{\contentsline {subsubsection}{\numberline {2.2.2}Kinematics}{3}\protected@file@percent }
\citation{Falla2017c}
\citation{Gizzi2015}
\citation{Oliveira2014}
\citation{Cheung2012}
\citation{Lee2001}
\citation{Oliveira2014}
\citation{Gizzi2011a}
\citation{Oliveira2014}
\@writefile{toc}{\contentsline {subsubsection}{\numberline {2.2.3}Experimental apparatus}{4}\protected@file@percent }
\@writefile{toc}{\contentsline {subsubsection}{\numberline {2.2.4}Experimental tasks}{4}\protected@file@percent }
\@writefile{toc}{\contentsline {subsection}{\numberline {2.3}Data analysis}{4}\protected@file@percent }
\@writefile{toc}{\contentsline {subsubsection}{\numberline {2.3.1}Kinematics and dynamics}{4}\protected@file@percent }
\@writefile{toc}{\contentsline {subsubsection}{\numberline {2.3.2}EMG}{4}\protected@file@percent }
\citation{Muceli2010}
\citation{Gizzi2011a}
\citation{Gizzi2012}
\@writefile{toc}{\contentsline {subsubsection}{\numberline {2.3.3}Motor modules}{5}\protected@file@percent }
\@writefile{toc}{\contentsline {subsubsection}{\numberline {2.3.4}Similarity}{5}\protected@file@percent }
\@writefile{toc}{\contentsline {subsubsection}{\numberline {2.3.5}Variability}{5}\protected@file@percent }
\@writefile{toc}{\contentsline {subsection}{\numberline {2.4}Statistical analysis}{5}\protected@file@percent }
\@writefile{toc}{\contentsline {section}{\numberline {3}Results}{5}\protected@file@percent }
\@writefile{toc}{\contentsline {subsection}{\numberline {3.1}Kinematics}{5}\protected@file@percent }
\@writefile{toc}{\contentsline {subsection}{\numberline {3.2}Muscular activation}{5}\protected@file@percent }
\@writefile{toc}{\contentsline {subsection}{\numberline {3.3}Muscle synergies}{5}\protected@file@percent }
\@writefile{toc}{\contentsline {subsection}{\numberline {3.4}Variability analysis}{5}\protected@file@percent }
\@writefile{toc}{\contentsline {subsection}{\numberline {3.5}Similarity}{5}\protected@file@percent }
\@writefile{toc}{\contentsline {section}{\numberline {4}Discussion}{5}\protected@file@percent }
\bibstyle{abbrv}
\bibdata{References}
\bibcite{Cappellini2006}{1}
\bibcite{Cheung2012}{2}
\bibcite{Clark2010d}{3}
\bibcite{Falla2017c}{4}
\bibcite{Gizzi2015}{5}
\bibcite{Gizzi2011a}{6}
\bibcite{Gizzi2012e}{7}
\bibcite{Gonzalez-Vargas2015}{8}
\bibcite{Hermens2000}{9}
\bibcite{Lee2001}{10}
\bibcite{Muceli2010}{11}
\bibcite{Oliveira2014}{12}
\bibcite{Sartori2013a}{13}
\@writefile{toc}{\contentsline {section}{\numberline {5}Conclusion}{6}\protected@file@percent }
\@writefile{toc}{\contentsline {section}{\numberline {6}References}{6}\protected@file@percent }
\@writefile{toc}{\contentsline {section}{\numberline {7}Acknowledgements}{6}\protected@file@percent }
\@writefile{toc}{\contentsline {section}{\numberline {8}Author contribution}{7}\protected@file@percent }
\@writefile{toc}{\contentsline {section}{\numberline {9}Conflict of interest}{7}\protected@file@percent }
\@writefile{toc}{\contentsline {section}{\numberline {10}Figures}{8}\protected@file@percent }
\@writefile{lof}{\contentsline {figure}{\numberline {1}{\ignorespaces }}{8}\protected@file@percent }
\newlabel{fig:subj_setup}{{1}{8}}
\@writefile{lof}{\contentsline {figure}{\numberline {2}{\ignorespaces }}{9}\protected@file@percent }
\newlabel{fig:exp_apparatus}{{2}{9}}
\@writefile{lof}{\contentsline {figure}{\numberline {3}{\ignorespaces }}{9}\protected@file@percent }
\newlabel{fig:exp_sequence}{{3}{9}}
\@writefile{toc}{\contentsline {section}{\numberline {11}Tables}{10}\protected@file@percent }
